{
    "dev": {
        "configLevel": "project",
        "useProfile": true,
        "profileName": "newuser"
    },
    "prod": {
        "configLevel": "project",
        "useProfile": true,
        "profileName": "newuser"
    },
    "test": {
        "configLevel": "project",
        "useProfile": true,
        "profileName": "newuser"
    }
}